<?xml version="1.0" encoding="UTF-8"?>
<CustomTab xmlns="http://soap.sforce.com/2006/04/metadata">
    <icon>et4ae5__ExactTargetDocuments/et4ae5__ETLogo.ico</icon>
    <label>Marketing Cloud</label>
    <mobileReady>false</mobileReady>
    <motif>Custom293: TV Widescreen</motif>
    <page>et4ae5__ETSwitchboard</page>
</CustomTab>
