<?xml version="1.0" encoding="UTF-8"?>
<CustomTab xmlns="http://soap.sforce.com/2006/04/metadata">
    <label>New Passing</label>
    <mobileReady>false</mobileReady>
    <motif>Custom83: Pencil</motif>
    <page>VFP21_RMCNew_Opportunity</page>
</CustomTab>
