<?xml version="1.0" encoding="UTF-8"?>
<CustomTab xmlns="http://soap.sforce.com/2006/04/metadata">
    <description>This will be used for the Account Search on BCS</description>
    <label>Search Account</label>
    <mobileReady>false</mobileReady>
    <motif>Custom84: Presenter</motif>
    <page>AccountSearchPage</page>
</CustomTab>
