<?xml version="1.0" encoding="UTF-8"?>
<CustomTab xmlns="http://soap.sforce.com/2006/04/metadata">
    <label>Support</label>
    <mobileReady>false</mobileReady>
    <motif>Custom86: Red Cross</motif>
    <page>Cac_SupportCase</page>
</CustomTab>
